(footprint "AS32-TTL-x" (version 20211014) (generator pcbnew)
  (layer "F.Cu")
  (tedit 0)
  (attr through_hole)
  (fp_text reference "REF**" (at 31.75 19.05 unlocked) (layer "F.SilkS")
    (effects (font (size 1 1) (thickness 0.15)))
    (tstamp c58960d9-4cac-4036-ad2e-1aef26946dae)
  )
  (fp_text value "AS32-TTL-x" (at 30.734 17.272 unlocked) (layer "F.Fab")
    (effects (font (size 1 1) (thickness 0.15)))
    (tstamp 5b96c1ad-46ba-4366-8241-fbc1cd0e9bbd)
  )
  (fp_text user "${REFERENCE}" (at 31.496 -0.762 unlocked) (layer "F.Fab")
    (effects (font (size 1 1) (thickness 0.15)))
    (tstamp fced3dbe-eec8-4979-aefd-686432f00d6c)
  )
  (fp_rect (start 0 0) (end 36 20) (layer "F.SilkS") (width 0.12) (fill none) (tstamp 4d23be17-ad99-490e-9ba8-62057d867055))
  (fp_rect (start -0.254 -0.254) (end 36.322 20.32) (layer "F.CrtYd") (width 0.05) (fill none) (tstamp 091ac8e9-e395-4b49-aea9-160f6aa4773c))
  (pad "1" thru_hole rect (at 1.6 2.38) (size 1.7 1.7) (drill 1) (layers *.Cu *.Mask) (tstamp df8f07e7-64d0-4c99-97d1-c0998bd2f385))
  (pad "2" thru_hole oval (at 1.6 4.92) (size 1.7 1.7) (drill 1) (layers *.Cu *.Mask) (tstamp 5a3e906c-8829-4cd7-88d7-2202ab435138))
  (pad "3" thru_hole oval (at 1.6 7.46) (size 1.7 1.7) (drill 1) (layers *.Cu *.Mask) (tstamp 96589b0c-b051-494a-952b-1d85eb492735))
  (pad "4" thru_hole oval (at 1.6 10) (size 1.7 1.7) (drill 1) (layers *.Cu *.Mask) (tstamp 87787b7b-0950-4e3b-8130-4503b072059b))
  (pad "5" thru_hole oval (at 1.6 12.54) (size 1.7 1.7) (drill 1) (layers *.Cu *.Mask) (tstamp 2a87db75-06c1-42be-8ebe-b406cb7d5e92))
  (pad "6" thru_hole oval (at 1.6 15.08) (size 1.7 1.7) (drill 1) (layers *.Cu *.Mask) (tstamp 4373d9c4-82aa-4cac-b73d-946ee27a0b2d))
  (pad "7" thru_hole oval (at 1.6 17.62) (size 1.7 1.7) (drill 1) (layers *.Cu *.Mask) (tstamp 7bcd28f6-599e-4b4b-887c-2d913c3b8148))
  (pad "8" thru_hole oval (at 33 3) (size 1.7 1.7) (drill 1) (layers *.Cu *.Mask) (tstamp 50fc2e2d-c659-4824-8d4f-f014d9a05286))
  (pad "9" thru_hole oval (at 33 5.54) (size 1.7 1.7) (drill 1) (layers *.Cu *.Mask) (tstamp cc505bde-f7e8-451f-b18c-439dcfe3b320))
  (pad "10" thru_hole oval (at 33 8.08) (size 1.7 1.7) (drill 1) (layers *.Cu *.Mask) (tstamp 167edfba-6254-47cf-ab9a-c9351e7ea86a))
)
