(footprint "433MHz_V" (version 20211014) (generator pcbnew)
  (layer "F.Cu")
  (tedit 0)
  (attr smd)
  (fp_text reference "REF**" (at 1.016 -10.668 unlocked) (layer "F.SilkS")
    (effects (font (size 1 1) (thickness 0.15)))
    (tstamp 13001692-9e23-4d03-8784-4e4df6c658fd)
  )
  (fp_text value "433MHz_V" (at 1.778 -8.644 unlocked) (layer "F.Fab")
    (effects (font (size 1 1) (thickness 0.15)))
    (tstamp ad167739-405a-4ffc-bfd5-2a89de0484ad)
  )
  (fp_text user "${REFERENCE}" (at 1.778 -7.144 unlocked) (layer "F.Fab")
    (effects (font (size 1 1) (thickness 0.15)))
    (tstamp 3691f3aa-d280-47b6-833c-ac5c00aa0303)
  )
  (fp_line (start -2.272011 -5.304962) (end -2.120189 -5.304962) (layer "F.Cu") (width 0.25) (tstamp 02b088ec-2e35-4d9f-842e-7f881e745a81))
  (fp_line (start 4.822775 5.06537) (end 4.922197 5.180109) (layer "F.Cu") (width 0.25) (tstamp 02c42142-4478-49f7-9516-caebf55f9238))
  (fp_line (start -3.186989 5.304963) (end -3.041318 5.26219) (layer "F.Cu") (width 0.25) (tstamp 068a0c49-45ff-4eed-a79c-3f51e9fcb8b7))
  (fp_line (start -1.846797 -5.180108) (end -1.747375 -5.065369) (layer "F.Cu") (width 0.25) (tstamp 06c54b25-f8b7-4730-b0ea-cb54e1faed06))
  (fp_line (start 2.420403 -5.180108) (end 2.519825 -5.065369) (layer "F.Cu") (width 0.25) (tstamp 0748cdbf-d8b7-4c97-b5e8-c4742c5dfc6d))
  (fp_line (start 7.329189 5.304963) (end 7.481011 5.304963) (layer "F.Cu") (width 0.25) (tstamp 076583c5-52e1-4a21-99a2-d2e0c0d0e2aa))
  (fp_line (start 3.983118 -5.262189) (end 4.128789 -5.304962) (layer "F.Cu") (width 0.25) (tstamp 07c2f95e-b23b-49b6-923e-f95a86b4f844))
  (fp_line (start -4.679003 -5.180108) (end -4.551282 -5.262189) (layer "F.Cu") (width 0.25) (tstamp 0a6e2a3d-168f-4121-8e67-c7764fd03823))
  (fp_line (start 6.956375 5.06537) (end 7.055797 5.180109) (layer "F.Cu") (width 0.25) (tstamp 0b67d70f-e02e-4192-baf7-0e8c6af88980))
  (fp_line (start 7.853825 5.06537) (end 7.916894 4.927268) (layer "F.Cu") (width 0.25) (tstamp 0c105832-aee3-44e2-941d-78a029df707c))
  (fp_line (start -8.0635 4.776992) (end -8.041894 4.927268) (layer "F.Cu") (width 0.25) (tstamp 0c50b4d7-b3d0-4535-ab68-fadbb7252286))
  (fp_line (start -3.484482 5.26219) (end -3.338811 5.304963) (layer "F.Cu") (width 0.25) (tstamp 0f3a9417-dfae-403c-a898-fdae467fbc4a))
  (fp_line (start 0.4709 4.776992) (end 0.492506 4.927268) (layer "F.Cu") (width 0.25) (tstamp 1158efbb-5132-41db-8652-760c70a9a9ee))
  (fp_line (start 2.147011 -5.304962) (end 2.292682 -5.262189) (layer "F.Cu") (width 0.25) (tstamp 11c4c154-7a67-4679-9f67-429095f4aefc))
  (fp_line (start -4.841494 -4.927267) (end -4.778425 -5.065369) (layer "F.Cu") (width 0.25) (tstamp 1683eca2-3a9a-4cab-a73c-bf3715da209e))
  (fp_line (start 4.426282 -5.262189) (end 4.554003 -5.180108) (layer "F.Cu") (width 0.25) (tstamp 16c4c684-7367-407b-a5b4-f28d5b8cabc5))
  (fp_line (start -1.974518 -5.262189) (end -1.846797 -5.180108) (layer "F.Cu") (width 0.25) (tstamp 185427c3-117b-4382-88a9-3d646377a735))
  (fp_line (start -0.411803 -5.180108) (end -0.284082 -5.262189) (layer "F.Cu") (width 0.25) (tstamp 192bbd2e-2176-404d-b564-6c94016f52e7))
  (fp_line (start -3.817906 -4.927267) (end -3.7963 -4.776991) (layer "F.Cu") (width 0.25) (tstamp 1977bea9-c70f-4a7f-8a23-db115b64595d))
  (fp_line (start -1.6627 -4.776991) (end -1.6627 4.776992) (layer "F.Cu") (width 0.25) (tstamp 1b30cbad-3d10-46a4-85a4-446388a5a36f))
  (fp_line (start -5.745803 5.180109) (end -5.618082 5.26219) (layer "F.Cu") (width 0.25) (tstamp 1be85b28-fb97-473a-b22c-c70549188494))
  (fp_line (start -0.138411 -5.304962) (end 0.013411 -5.304962) (layer "F.Cu") (width 0.25) (tstamp 1c4de7c1-ad48-4788-8fd2-855cf74a0b26))
  (fp_line (start 3.855397 -5.180108) (end 3.983118 -5.262189) (layer "F.Cu") (width 0.25) (tstamp 1fc5fdc9-03a6-47a5-bc91-7721cd775f3c))
  (fp_line (start 2.582894 -4.927267) (end 2.6045 -4.776991) (layer "F.Cu") (width 0.25) (tstamp 20c0d1bc-5681-481e-bbc4-46c9c15db3cc))
  (fp_line (start 4.759706 4.927268) (end 4.822775 5.06537) (layer "F.Cu") (width 0.25) (tstamp 23b6e7b3-9c87-430b-ab76-2cb76fbb588f))
  (fp_line (start -2.7295 4.776992) (end -2.7295 -4.776991) (layer "F.Cu") (width 0.25) (tstamp 24b10bb5-76ce-4c26-b5fb-50ca4259f0a8))
  (fp_line (start 0.449294 -4.927267) (end 0.4709 -4.776991) (layer "F.Cu") (width 0.25) (tstamp 2516f2c7-b85b-4b40-acb5-9e86864bd998))
  (fp_line (start 3.487203 5.180109) (end 3.586625 5.06537) (layer "F.Cu") (width 0.25) (tstamp 251ba45a-f7e0-43ba-8f23-ca6b0fa27429))
  (fp_line (start -7.879403 5.180109) (end -7.751682 5.26219) (layer "F.Cu") (width 0.25) (tstamp 29647f36-41ba-4741-90b9-50b0de23fb8b))
  (fp_line (start -0.284082 -5.262189) (end -0.138411 -5.304962) (layer "F.Cu") (width 0.25) (tstamp 29b000b0-d917-4e57-a81c-135edfe0b684))
  (fp_line (start -5.9299 -4.776991) (end -5.9299 4.776992) (layer "F.Cu") (width 0.25) (tstamp 29bed1fe-18be-4087-b166-f8a3b579b615))
  (fp_line (start -2.545403 -5.180108) (end -2.417682 -5.262189) (layer "F.Cu") (width 0.25) (tstamp 2a8de6d5-6153-4d44-aad6-4ed5398aa501))
  (fp_line (start -7.978825 5.06537) (end -7.879403 5.180109) (layer "F.Cu") (width 0.25) (tstamp 2ae0b3bb-76ec-43ca-b5a4-e99f3bafd137))
  (fp_line (start 6.8717 4.776992) (end 6.893306 4.927268) (layer "F.Cu") (width 0.25) (tstamp 2c733c3f-0f35-42c3-92d1-3836f7979933))
  (fp_line (start -3.980397 -5.180108) (end -3.880975 -5.065369) (layer "F.Cu") (width 0.25) (tstamp 2ea0e417-7d30-44fe-b6e4-81deb0420678))
  (fp_line (start -8.0635 -2.54) (end -8.0635 4.776992) (layer "F.Cu") (width 0.25) (tstamp 2f3bb116-7556-4788-a9ec-42b61a7a00e3))
  (fp_line (start -1.684306 -4.927267) (end -1.6627 -4.776991) (layer "F.Cu") (width 0.25) (tstamp 2f458635-e416-4db1-880e-88f9e4e4bfaa))
  (fp_line (start 3.649694 4.927268) (end 3.6713 4.776992) (layer "F.Cu") (width 0.25) (tstamp 2f48e144-2381-46b2-8fbc-c3bfb4073a4f))
  (fp_line (start 1.995189 -5.304962) (end 2.147011 -5.304962) (layer "F.Cu") (width 0.25) (tstamp 310f5388-428c-4222-96fe-270b68139d48))
  (fp_line (start -4.884706 4.927268) (end -4.8631 4.776992) (layer "F.Cu") (width 0.25) (tstamp 327d74a4-e470-4626-8d75-5f25c70b898e))
  (fp_line (start 2.689175 5.06537) (end 2.788597 5.180109) (layer "F.Cu") (width 0.25) (tstamp 32c37748-95d8-4770-8298-a56858f501f1))
  (fp_line (start -0.511225 -5.065369) (end -0.411803 -5.180108) (layer "F.Cu") (width 0.25) (tstamp 32c9648e-7f2c-406d-afa1-5d2bcdf0839f))
  (fp_line (start -6.812603 -5.180108) (end -6.684882 -5.262189) (layer "F.Cu") (width 0.25) (tstamp 3445b28b-0bce-46ea-93c2-7ed7d7496918))
  (fp_line (start -0.5959 4.776992) (end -0.5959 -4.776991) (layer "F.Cu") (width 0.25) (tstamp 37827b18-9ab9-45bb-b162-021c8a0e34b8))
  (fp_line (start 0.492506 4.927268) (end 0.555575 5.06537) (layer "F.Cu") (width 0.25) (tstamp 3bb416d4-7b13-42cb-bb95-e7b290b3e2ac))
  (fp_line (start 0.013411 -5.304962) (end 0.159082 -5.262189) (layer "F.Cu") (width 0.25) (tstamp 3d375a0f-1fa5-49f1-8f7f-29c0e3542903))
  (fp_line (start -1.6627 4.776992) (end -1.641094 4.927268) (layer "F.Cu") (width 0.25) (tstamp 3e12796e-cc9d-42e0-aba9-a81c357e7119))
  (fp_line (start -6.975094 -4.927267) (end -6.912025 -5.065369) (layer "F.Cu") (width 0.25) (tstamp 3ecfff6b-a3a1-48d1-ae7c-6576a56e7f79))
  (fp_line (start -3.612203 5.180109) (end -3.484482 5.26219) (layer "F.Cu") (width 0.25) (tstamp 3fb70b85-db67-4f8a-a209-399b13446212))
  (fp_line (start -5.845225 5.06537) (end -5.745803 5.180109) (layer "F.Cu") (width 0.25) (tstamp 4087b6e0-5fb2-4dd7-b7c1-cee8ac931324))
  (fp_line (start 3.6713 4.776992) (end 3.6713 -4.776991) (layer "F.Cu") (width 0.25) (tstamp 42d7cb4e-a7b4-479c-bfdc-0b8856cf6376))
  (fp_line (start -1.053389 5.304963) (end -0.907718 5.26219) (layer "F.Cu") (width 0.25) (tstamp 46253482-33a5-4052-9690-5ce30bc0c140))
  (fp_line (start -3.041318 5.26219) (end -2.913597 5.180109) (layer "F.Cu") (width 0.25) (tstamp 490f88a0-d1c7-47ba-95c0-95160850da4c))
  (fp_line (start 7.183518 5.26219) (end 7.329189 5.304963) (layer "F.Cu") (width 0.25) (tstamp 49b9ef08-1536-42c1-bc83-19603de60f7d))
  (fp_line (start 1.721797 -5.180108) (end 1.849518 -5.262189) (layer "F.Cu") (width 0.25) (tstamp 4b2926a5-f628-4fe5-b88a-333011b13fa5))
  (fp_line (start -6.912025 -5.065369) (end -6.812603 -5.180108) (layer "F.Cu") (width 0.25) (tstamp 4b374c5c-1d12-44e3-a6a7-cf46c98a1e11))
  (fp_line (start 6.414211 -5.304962) (end 6.559882 -5.262189) (layer "F.Cu") (width 0.25) (tstamp 4b4c3a01-a9d3-46c8-9db6-b94944e6136d))
  (fp_line (start -4.551282 -5.262189) (end -4.405611 -5.304962) (layer "F.Cu") (width 0.25) (tstamp 4b75edd4-f1e3-4e56-bc35-9781741ca1c6))
  (fp_line (start -5.951506 -4.927267) (end -5.9299 -4.776991) (layer "F.Cu") (width 0.25) (tstamp 4bb558bc-1724-4f15-a8c0-2fe5d4013805))
  (fp_line (start 1.080211 5.304963) (end 1.225882 5.26219) (layer "F.Cu") (width 0.25) (tstamp 4d0841ff-35ef-4ebb-b066-26cc9164a619))
  (fp_line (start 4.280611 -5.304962) (end 4.426282 -5.262189) (layer "F.Cu") (width 0.25) (tstamp 4e3e9544-7586-489f-96bb-77a0fa7a712f))
  (fp_line (start -6.539211 -5.304962) (end -6.387389 -5.304962) (layer "F.Cu") (width 0.25) (tstamp 508ed50a-e656-4163-bebb-585ff9a62dc5))
  (fp_line (start 0.386225 -5.065369) (end 0.449294 -4.927267) (layer "F.Cu") (width 0.25) (tstamp 534c3619-79be-4ca4-a51b-b249f969d533))
  (fp_line (start -3.711625 5.06537) (end -3.612203 5.180109) (layer "F.Cu") (width 0.25) (tstamp 536c4a45-4212-412c-aace-b8353eb613a2))
  (fp_line (start -2.120189 -5.304962) (end -1.974518 -5.262189) (layer "F.Cu") (width 0.25) (tstamp 5423ac53-0c10-47ed-b106-63f4281e758a))
  (fp_line (start 5.988997 -5.180108) (end 6.116718 -5.262189) (layer "F.Cu") (width 0.25) (tstamp 555fd684-9a58-4921-bd99-3bf42d5279c2))
  (fp_line (start -6.9967 -4.776991) (end -6.975094 -4.927267) (layer "F.Cu") (width 0.25) (tstamp 56295b80-8509-4318-8d27-352ea8989db3))
  (fp_line (start 0.782718 5.26219) (end 0.928389 5.304963) (layer "F.Cu") (width 0.25) (tstamp 56b57131-9ec4-428b-8d2e-1c864a88391d))
  (fp_line (start 2.626106 4.927268) (end 2.689175 5.06537) (layer "F.Cu") (width 0.25) (tstamp 56fd8715-3d61-4a96-afb3-1b1aacb98c0e))
  (fp_line (start 2.292682 -5.262189) (end 2.420403 -5.180108) (layer "F.Cu") (width 0.25) (tstamp 5947d206-d732-42f0-a09e-8c9b702338f9))
  (fp_line (start 3.6713 -4.776991) (end 3.692906 -4.927267) (layer "F.Cu") (width 0.25) (tstamp 5d2b9b3f-d23c-41e0-b4fc-e5bb34790bb4))
  (fp_line (start 5.8049 -4.776991) (end 5.826506 -4.927267) (layer "F.Cu") (width 0.25) (tstamp 5e6f4d91-f0dd-48a7-ad41-563a8777e1c8))
  (fp_line (start -4.8631 4.776992) (end -4.8631 -4.776991) (layer "F.Cu") (width 0.25) (tstamp 5f3c654a-1630-4276-81a9-b8667adc2533))
  (fp_line (start 5.049918 5.26219) (end 5.195589 5.304963) (layer "F.Cu") (width 0.25) (tstamp 6269237d-6310-46b6-b21e-f005a9486c55))
  (fp_line (start -5.472411 5.304963) (end -5.320589 5.304963) (layer "F.Cu") (width 0.25) (tstamp 65224fba-90ba-495b-8408-f7d9735133c1))
  (fp_line (start -7.018306 4.927268) (end -6.9967 4.776992) (layer "F.Cu") (width 0.25) (tstamp 66df04a0-515b-4c5d-bc38-0cfd79796178))
  (fp_line (start -1.747375 -5.065369) (end -1.684306 -4.927267) (layer "F.Cu") (width 0.25) (tstamp 67114268-7fb7-44e9-995f-c523c04e79c1))
  (fp_line (start 4.922197 5.180109) (end 5.049918 5.26219) (layer "F.Cu") (width 0.25) (tstamp 69eb474b-1e34-40c4-b341-4d55c3707652))
  (fp_line (start 1.5377 -4.776991) (end 1.559306 -4.927267) (layer "F.Cu") (width 0.25) (tstamp 6b3760b2-224e-4e74-8c82-030eb688a21e))
  (fp_line (start 6.262389 -5.304962) (end 6.414211 -5.304962) (layer "F.Cu") (width 0.25) (tstamp 6d55c0dc-5485-4072-bbc4-e4365d5f22b6))
  (fp_line (start 6.116718 -5.262189) (end 6.262389 -5.304962) (layer "F.Cu") (width 0.25) (tstamp 6e688a02-3fd7-45a7-8569-890e83375c1a))
  (fp_line (start -4.947775 5.06537) (end -4.884706 4.927268) (layer "F.Cu") (width 0.25) (tstamp 6f60ab9b-ba7c-496c-918c-ead96fdbaca2))
  (fp_line (start 4.128789 -5.304962) (end 4.280611 -5.304962) (layer "F.Cu") (width 0.25) (tstamp 71c75c14-6d46-4da7-b2c6-b451a557bf8e))
  (fp_line (start 1.353603 5.180109) (end 1.453025 5.06537) (layer "F.Cu") (width 0.25) (tstamp 72b121ad-2a78-469f-904e-b914a0fef2de))
  (fp_line (start -6.684882 -5.262189) (end -6.539211 -5.304962) (layer "F.Cu") (width 0.25) (tstamp 7342af27-f2ac-427a-9f81-bfaf365cb968))
  (fp_line (start 5.826506 -4.927267) (end 5.889575 -5.065369) (layer "F.Cu") (width 0.25) (tstamp 73662a03-0f7a-4f27-a409-376fb64ba806))
  (fp_line (start 2.916318 5.26219) (end 3.061989 5.304963) (layer "F.Cu") (width 0.25) (tstamp 737d58ae-8578-42b1-9283-953d67ce7459))
  (fp_line (start -6.9967 4.776992) (end -6.9967 -4.776991) (layer "F.Cu") (width 0.25) (tstamp 7554a61e-2ece-43e7-b43c-1be620d53ea3))
  (fp_line (start 1.849518 -5.262189) (end 1.995189 -5.304962) (layer "F.Cu") (width 0.25) (tstamp 758b8611-9fe8-4f09-a2ef-f47b80ddb433))
  (fp_line (start 7.754403 5.180109) (end 7.853825 5.06537) (layer "F.Cu") (width 0.25) (tstamp 7674af7c-494c-4493-a070-81f172431eb4))
  (fp_line (start 3.213811 5.304963) (end 3.359482 5.26219) (layer "F.Cu") (width 0.25) (tstamp 77864cac-2cdd-438d-926a-1cf9fdd54a64))
  (fp_line (start -3.338811 5.304963) (end -3.186989 5.304963) (layer "F.Cu") (width 0.25) (tstamp 77d2bb9b-4955-49ed-bcfa-80d12b6c97f6))
  (fp_line (start -5.047197 5.180109) (end -4.947775 5.06537) (layer "F.Cu") (width 0.25) (tstamp 77fb2efc-28e7-48a4-aca7-2fc1dd1eb15c))
  (fp_line (start -5.618082 5.26219) (end -5.472411 5.304963) (layer "F.Cu") (width 0.25) (tstamp 7a9e08d3-d6be-43a3-b9a2-1e6fb6c136a9))
  (fp_line (start -0.5959 -4.776991) (end -0.574294 -4.927267) (layer "F.Cu") (width 0.25) (tstamp 7e24b231-35a5-42f1-9c7a-7ae5d2cd7661))
  (fp_line (start -0.680575 5.06537) (end -0.617506 4.927268) (layer "F.Cu") (width 0.25) (tstamp 7f68e47b-7566-435d-859e-752e9c193712))
  (fp_line (start -3.774694 4.927268) (end -3.711625 5.06537) (layer "F.Cu") (width 0.25) (tstamp 7f77d249-fe7f-4e99-8d53-1b3d9ddd8f50))
  (fp_line (start 7.055797 5.180109) (end 7.183518 5.26219) (layer "F.Cu") (width 0.25) (tstamp 80108639-b834-4d24-8ab8-b3498b055fac))
  (fp_line (start -5.9299 4.776992) (end -5.908294 4.927268) (layer "F.Cu") (width 0.25) (tstamp 82d472b8-2733-4dbe-89e2-371a9c4c2f56))
  (fp_line (start -2.707894 -4.927267) (end -2.644825 -5.065369) (layer "F.Cu") (width 0.25) (tstamp 8502c0c3-d991-420d-a023-92b068bd0a20))
  (fp_line (start -2.814175 5.06537) (end -2.751106 4.927268) (layer "F.Cu") (width 0.25) (tstamp 89935c9c-0b6e-4aa7-834d-a2f802bec866))
  (fp_line (start 1.5377 4.776992) (end 1.5377 -4.776991) (layer "F.Cu") (width 0.25) (tstamp 89abdcc5-76e0-414c-ad2f-a664ba356c8f))
  (fp_line (start 3.061989 5.304963) (end 3.213811 5.304963) (layer "F.Cu") (width 0.25) (tstamp 8aafc401-ffae-448b-9e3c-dcbafa8ee4ae))
  (fp_line (start -0.617506 4.927268) (end -0.5959 4.776992) (layer "F.Cu") (width 0.25) (tstamp 8b1ba673-beae-45fe-a2c3-d0c6c2a1074c))
  (fp_line (start 5.493082 5.26219) (end 5.620803 5.180109) (layer "F.Cu") (width 0.25) (tstamp 8c14e6e4-9dc5-4b49-b92e-8239adc79936))
  (fp_line (start 4.554003 -5.180108) (end 4.653425 -5.065369) (layer "F.Cu") (width 0.25) (tstamp 8ce61671-cd4e-49b4-8dd6-6780fc2754a1))
  (fp_line (start -5.174918 5.26219) (end -5.047197 5.180109) (layer "F.Cu") (width 0.25) (tstamp 8d79db4c-3394-4ced-8c77-c4047f4038f6))
  (fp_line (start 0.286803 -5.180108) (end 0.386225 -5.065369) (layer "F.Cu") (width 0.25) (tstamp 8e47fadf-f574-42c1-a8a2-526624537a4c))
  (fp_line (start -3.880975 -5.065369) (end -3.817906 -4.927267) (layer "F.Cu") (width 0.25) (tstamp 8ef43bcc-60b3-40c2-ad19-ab9e7f655ce9))
  (fp_line (start -4.253789 -5.304962) (end -4.108118 -5.262189) (layer "F.Cu") (width 0.25) (tstamp 8f62e65f-2e84-4b1d-af31-f44f7cbb88b7))
  (fp_line (start -0.574294 -4.927267) (end -0.511225 -5.065369) (layer "F.Cu") (width 0.25) (tstamp 908f12d3-6f32-49e0-a98d-46fe0ea3057c))
  (fp_line (start 4.716494 -4.927267) (end 4.7381 -4.776991) (layer "F.Cu") (width 0.25) (tstamp 9213e2ef-e066-46cd-8ecb-d9bcb770ba27))
  (fp_line (start -4.405611 -5.304962) (end -4.253789 -5.304962) (layer "F.Cu") (width 0.25) (tstamp 92d75ef1-4e15-4617-bfca-9fb37eb59ea1))
  (fp_line (start -3.7963 4.776992) (end -3.774694 4.927268) (layer "F.Cu") (width 0.25) (tstamp 93168116-633a-4e9c-b858-550a99a8b45a))
  (fp_line (start -7.180797 5.180109) (end -7.081375 5.06537) (layer "F.Cu") (width 0.25) (tstamp 9449ff2e-8186-459d-8838-0d381e36984e))
  (fp_line (start 5.195589 5.304963) (end 5.347411 5.304963) (layer "F.Cu") (width 0.25) (tstamp 953576cd-b93f-4a96-9fbc-bf833d0f985a))
  (fp_line (start 6.8717 -4.776991) (end 6.8717 4.776992) (layer "F.Cu") (width 0.25) (tstamp 99085203-9ace-4ef0-b60a-4efcb60eaac8))
  (fp_line (start -1.641094 4.927268) (end -1.578025 5.06537) (layer "F.Cu") (width 0.25) (tstamp 9968c8e6-b396-44d5-a4e4-cee400ee2a84))
  (fp_line (start 1.225882 5.26219) (end 1.353603 5.180109) (layer "F.Cu") (width 0.25) (tstamp 9d7c2b8a-16f2-44f2-97d1-43f5ef5afc70))
  (fp_line (start 5.720225 5.06537) (end 5.783294 4.927268) (layer "F.Cu") (width 0.25) (tstamp 9f84b156-b5e0-4ee6-99b3-a1234e06e013))
  (fp_line (start 6.559882 -5.262189) (end 6.687603 -5.180108) (layer "F.Cu") (width 0.25) (tstamp a0e22c77-fccc-4cf1-b71f-455947cc6bd1))
  (fp_line (start -6.387389 -5.304962) (end -6.241718 -5.262189) (layer "F.Cu") (width 0.25) (tstamp a0e37a81-4785-4542-b78b-0e4af1a93ef1))
  (fp_line (start 5.620803 5.180109) (end 5.720225 5.06537) (layer "F.Cu") (width 0.25) (tstamp a270638b-6400-4cbb-b864-7ef5ff3c1f4f))
  (fp_line (start -5.908294 4.927268) (end -5.845225 5.06537) (layer "F.Cu") (width 0.25) (tstamp a3025a81-50f5-41d8-b0e7-a982a9735115))
  (fp_line (start 0.159082 -5.262189) (end 0.286803 -5.180108) (layer "F.Cu") (width 0.25) (tstamp a495820b-0248-4f07-a61f-9492ccd25e40))
  (fp_line (start 0.555575 5.06537) (end 0.654997 5.180109) (layer "F.Cu") (width 0.25) (tstamp a6b5eb40-227a-492a-b194-e9632feb0a71))
  (fp_line (start -7.308518 5.26219) (end -7.180797 5.180109) (layer "F.Cu") (width 0.25) (tstamp a6c68806-bb12-46b2-826e-293190f82e48))
  (fp_line (start 1.622375 -5.065369) (end 1.721797 -5.180108) (layer "F.Cu") (width 0.25) (tstamp a7cb1c60-45af-4f49-8b21-5c2c363a1b86))
  (fp_line (start 2.788597 5.180109) (end 2.916318 5.26219) (layer "F.Cu") (width 0.25) (tstamp a93a1782-5cb5-440f-8a2e-36b4f7749042))
  (fp_line (start -2.751106 4.927268) (end -2.7295 4.776992) (layer "F.Cu") (width 0.25) (tstamp ae8cb098-64ac-4ca4-a1ae-31b8e96f60b3))
  (fp_line (start -2.417682 -5.262189) (end -2.272011 -5.304962) (layer "F.Cu") (width 0.25) (tstamp b12fb911-e833-4b75-b836-b17777650cc1))
  (fp_line (start 5.347411 5.304963) (end 5.493082 5.26219) (layer "F.Cu") (width 0.25) (tstamp b189bad2-bd06-4949-bd1c-27e7864494b7))
  (fp_line (start -5.320589 5.304963) (end -5.174918 5.26219) (layer "F.Cu") (width 0.25) (tstamp b20ddc59-95fd-48f0-b7cb-ad5fcdf35e57))
  (fp_line (start 2.519825 -5.065369) (end 2.582894 -4.927267) (layer "F.Cu") (width 0.25) (tstamp b20f3267-ac5f-4b23-8f3e-579d145afcf1))
  (fp_line (start 0.654997 5.180109) (end 0.782718 5.26219) (layer "F.Cu") (width 0.25) (tstamp b9a20a1a-5276-40f8-9f84-cc278e4c0724))
  (fp_line (start 4.7381 -4.776991) (end 4.7381 4.776992) (layer "F.Cu") (width 0.25) (tstamp bb576ea6-49c0-481b-941a-f235c122f5ea))
  (fp_line (start 5.783294 4.927268) (end 5.8049 4.776992) (layer "F.Cu") (width 0.25) (tstamp bc1ee409-7105-49dd-aff8-e671cb5eb0f7))
  (fp_line (start 3.755975 -5.065369) (end 3.855397 -5.180108) (layer "F.Cu") (width 0.25) (tstamp bd8467c1-f7ff-46ca-b5a2-1a7b4e27f354))
  (fp_line (start 7.9385 4.776992) (end 7.9385 0) (layer "F.Cu") (width 0.25) (tstamp c373f76c-1970-40f0-b4a7-452dbae6be88))
  (fp_line (start 1.453025 5.06537) (end 1.516094 4.927268) (layer "F.Cu") (width 0.25) (tstamp cb5dfb2e-589d-4002-bc46-8d3fcc8d23be))
  (fp_line (start -0.779997 5.180109) (end -0.680575 5.06537) (layer "F.Cu") (width 0.25) (tstamp cd3f5080-dfe1-4aab-82cf-3c551c02af5b))
  (fp_line (start 0.4709 -4.776991) (end 0.4709 4.776992) (layer "F.Cu") (width 0.25) (tstamp cdbdb825-b956-4d37-8cfc-d7f2ec9c1170))
  (fp_line (start -1.478603 5.180109) (end -1.350882 5.26219) (layer "F.Cu") (width 0.25) (tstamp ce48c388-dfbe-4f80-a708-ce0156220103))
  (fp_line (start -1.578025 5.06537) (end -1.478603 5.180109) (layer "F.Cu") (width 0.25) (tstamp ceb4ff9b-9c92-4d73-92d3-b24c9784b8a4))
  (fp_line (start 7.481011 5.304963) (end 7.626682 5.26219) (layer "F.Cu") (width 0.25) (tstamp cee4f4da-f5b8-431a-8e13-cb746f865acc))
  (fp_line (start -2.644825 -5.065369) (end -2.545403 -5.180108) (layer "F.Cu") (width 0.25) (tstamp d1275b1a-8eb5-4f7f-91dc-ea962ed8da8f))
  (fp_line (start -8.041894 4.927268) (end -7.978825 5.06537) (layer "F.Cu") (width 0.25) (tstamp d194f430-3d42-447a-9ce3-3f0456c01400))
  (fp_line (start 1.516094 4.927268) (end 1.5377 4.776992) (layer "F.Cu") (width 0.25) (tstamp d23d8a7e-16e4-4cb6-8042-bc0309b569c3))
  (fp_line (start -7.454189 5.304963) (end -7.308518 5.26219) (layer "F.Cu") (width 0.25) (tstamp d56b2b89-46b3-4ff8-910a-0c946ecffebf))
  (fp_line (start -1.350882 5.26219) (end -1.205211 5.304963) (layer "F.Cu") (width 0.25) (tstamp d73df75d-5079-45e7-8480-a20bf516f67a))
  (fp_line (start -7.606011 5.304963) (end -7.454189 5.304963) (layer "F.Cu") (width 0.25) (tstamp d9cb9e4b-4f1b-4086-961f-7b9cf10294e3))
  (fp_line (start -6.113997 -5.180108) (end -6.014575 -5.065369) (layer "F.Cu") (width 0.25) (tstamp da9007d7-8812-42f2-8517-d7932c7012ff))
  (fp_line (start 6.850094 -4.927267) (end 6.8717 -4.776991) (layer "F.Cu") (width 0.25) (tstamp dabd1528-45a6-41d1-ad18-97504b59f0a0))
  (fp_line (start -2.913597 5.180109) (end -2.814175 5.06537) (layer "F.Cu") (width 0.25) (tstamp dafb4080-0a66-4280-a013-033f971eea5f))
  (fp_line (start 7.916894 4.927268) (end 7.9385 4.776992) (layer "F.Cu") (width 0.25) (tstamp dafb9ede-bbc7-4f4f-8b1b-ecb9aab2c0ed))
  (fp_line (start -3.7963 -4.776991) (end -3.7963 4.776992) (layer "F.Cu") (width 0.25) (tstamp dcddefe2-c13e-41e8-bc2b-326e64b5ad03))
  (fp_line (start 1.559306 -4.927267) (end 1.622375 -5.065369) (layer "F.Cu") (width 0.25) (tstamp dce6b0bc-5da1-420b-8f43-87109cc49dc6))
  (fp_line (start -4.778425 -5.065369) (end -4.679003 -5.180108) (layer "F.Cu") (width 0.25) (tstamp dd45bbe4-d19f-41d4-9209-a58de20dfd95))
  (fp_line (start -6.014575 -5.065369) (end -5.951506 -4.927267) (layer "F.Cu") (width 0.25) (tstamp df05cf6c-8512-4634-ac0e-5f368c57368d))
  (fp_line (start 6.687603 -5.180108) (end 6.787025 -5.065369) (layer "F.Cu") (width 0.25) (tstamp df4278ce-841a-4cef-b121-6f2de85b43be))
  (fp_line (start 5.889575 -5.065369) (end 5.988997 -5.180108) (layer "F.Cu") (width 0.25) (tstamp dff42719-49cf-4431-af5e-c5fca7c3eb14))
  (fp_line (start 2.6045 -4.776991) (end 2.6045 4.776992) (layer "F.Cu") (width 0.25) (tstamp e2f804b9-b0b3-4e3c-8f12-88e53973d4f3))
  (fp_line (start -7.081375 5.06537) (end -7.018306 4.927268) (layer "F.Cu") (width 0.25) (tstamp e3047d24-fc8c-4a00-89e2-cf409b71d9f8))
  (fp_line (start 6.893306 4.927268) (end 6.956375 5.06537) (layer "F.Cu") (width 0.25) (tstamp e43a803e-a093-4b63-b6a9-dc2cf7bf9415))
  (fp_line (start 3.692906 -4.927267) (end 3.755975 -5.065369) (layer "F.Cu") (width 0.25) (tstamp e4888c14-3762-4935-bb5b-35a3ba129b3c))
  (fp_line (start 4.653425 -5.065369) (end 4.716494 -4.927267) (layer "F.Cu") (width 0.25) (tstamp e6625c75-47ec-47fb-adb5-0b2c553c532f))
  (fp_line (start -4.108118 -5.262189) (end -3.980397 -5.180108) (layer "F.Cu") (width 0.25) (tstamp e6cff71b-60c3-4597-b453-8dec45a96133))
  (fp_line (start 7.626682 5.26219) (end 7.754403 5.180109) (layer "F.Cu") (width 0.25) (tstamp e89eced2-45ea-47a1-8225-a319bccf3301))
  (fp_line (start -0.907718 5.26219) (end -0.779997 5.180109) (layer "F.Cu") (width 0.25) (tstamp e8e665c5-4383-4799-9de1-d555aba9f815))
  (fp_line (start -1.205211 5.304963) (end -1.053389 5.304963) (layer "F.Cu") (width 0.25) (tstamp e990d4aa-3652-4433-98b4-deb8fc5b6e36))
  (fp_line (start 4.7381 4.776992) (end 4.759706 4.927268) (layer "F.Cu") (width 0.25) (tstamp e9d5873c-a87c-4ee6-933d-da958b048ee6))
  (fp_line (start -6.241718 -5.262189) (end -6.113997 -5.180108) (layer "F.Cu") (width 0.25) (tstamp ea42a0c7-6b16-43ed-a080-9d3a7283d0cf))
  (fp_line (start -4.8631 -4.776991) (end -4.841494 -4.927267) (layer "F.Cu") (width 0.25) (tstamp ea9be443-466d-4536-9029-d314bd919200))
  (fp_line (start -2.7295 -4.776991) (end -2.707894 -4.927267) (layer "F.Cu") (width 0.25) (tstamp ee3e5ebc-9c8e-402c-9c4d-49d17325a61b))
  (fp_line (start 3.586625 5.06537) (end 3.649694 4.927268) (layer "F.Cu") (width 0.25) (tstamp eeac1fd4-1188-4691-8905-02e53c858a73))
  (fp_line (start 3.359482 5.26219) (end 3.487203 5.180109) (layer "F.Cu") (width 0.25) (tstamp ef6d499d-bb68-4dbf-8ddd-74c7ff213066))
  (fp_line (start 0.928389 5.304963) (end 1.080211 5.304963) (layer "F.Cu") (width 0.25) (tstamp ef90e7c8-423b-4159-956a-fdf9aae6eecf))
  (fp_line (start 2.6045 4.776992) (end 2.626106 4.927268) (layer "F.Cu") (width 0.25) (tstamp f2b14fd6-fa76-48ca-8893-71356364b528))
  (fp_line (start 5.8049 4.776992) (end 5.8049 -4.776991) (layer "F.Cu") (width 0.25) (tstamp f768caab-421c-4bb7-a560-e4654a1249ad))
  (fp_line (start -7.751682 5.26219) (end -7.606011 5.304963) (layer "F.Cu") (width 0.25) (tstamp fd9d611a-e2a9-4466-b492-824f06876b4c))
  (fp_line (start 6.787025 -5.065369) (end 6.850094 -4.927267) (layer "F.Cu") (width 0.25) (tstamp ff23840b-3f36-458a-9645-1db9504fc142))
  (pad "1" smd oval (at 7.9385 -0.762) (size 0.25 1) (drill (offset 0 0.35)) (layers "F.Cu") (tstamp fc2267cf-0430-40b6-a44f-39630c1a798c))
)
