(footprint "PinSocket_1x05P_2.54mm_Horizontal_SMD" (version 20211014) (generator pcbnew)
  (layer "F.Cu")
  (tedit 624053B7)
  (attr smd)
  (fp_text reference "REF**" (at -13.716 9.652 90 unlocked) (layer "F.SilkS")
    (effects (font (size 1 1) (thickness 0.15)))
    (tstamp 598483d5-163b-475c-83a1-684fb184809e)
  )
  (fp_text value "PinSocket_1x05P_2.54mm_Horizontal_SMD" (at -3.302 13.462 unlocked) (layer "F.Fab")
    (effects (font (size 1 1) (thickness 0.15)))
    (tstamp b88245ad-a988-4f72-956a-a8a7f5ce68da)
  )
  (fp_text user "${REFERENCE}" (at -7.62 5.334 90 unlocked) (layer "F.Fab")
    (effects (font (size 1 1) (thickness 0.15)))
    (tstamp c5dc3d9d-6ef1-42e1-836d-66cbce4896de)
  )
  (fp_line (start -12.189 0.20714) (end -3.559 0.20714) (layer "F.SilkS") (width 0.12) (tstamp 02374757-2b0f-4a03-8eab-b0db623b6960))
  (fp_line (start -12.189 -1.33) (end -3.559 -1.33) (layer "F.SilkS") (width 0.12) (tstamp 09b0a758-f157-4381-96fa-8df855a1dc6a))
  (fp_line (start -12.189 0.44333) (end -3.559 0.44333) (layer "F.SilkS") (width 0.12) (tstamp 0a2aac45-440d-47c9-a73c-8994d953be71))
  (fp_line (start -12.189 -0.147145) (end -3.559 -0.147145) (layer "F.SilkS") (width 0.12) (tstamp 150f6d81-8b96-43bf-9b99-85308d90941a))
  (fp_line (start -12.189 -0.383335) (end -3.559 -0.383335) (layer "F.SilkS") (width 0.12) (tstamp 2332259d-1294-4538-8818-3065e38d8a6c))
  (fp_line (start -12.189 -0.50143) (end -3.559 -0.50143) (layer "F.SilkS") (width 0.12) (tstamp 235f895d-5d13-4aec-8f1e-432fcb4f8179))
  (fp_line (start -12.189 -0.97381) (end -3.559 -0.97381) (layer "F.SilkS") (width 0.12) (tstamp 24ce56d2-8f8f-47ef-9cdc-5ff096248fea))
  (fp_line (start -12.189 -0.619525) (end -3.559 -0.619525) (layer "F.SilkS") (width 0.12) (tstamp 2a88a2b6-1aab-4ff3-8960-81ec50b5066a))
  (fp_line (start -12.189 8.89) (end -3.559 8.89) (layer "F.SilkS") (width 0.12) (tstamp 2b46ea1b-c321-4129-871c-594c1c83fcfa))
  (fp_line (start -12.189 -1.21) (end -3.559 -1.21) (layer "F.SilkS") (width 0.12) (tstamp 34119bf7-1325-446d-ba29-ef02c0df486b))
  (fp_line (start -12.189 -1.33) (end -12.189 11.49) (layer "F.SilkS") (width 0.12) (tstamp 3d8aa450-ee77-4e89-af85-bf1d732f51b6))
  (fp_line (start -12.189 1.033805) (end -3.559 1.033805) (layer "F.SilkS") (width 0.12) (tstamp 486ded9e-ff46-4591-9472-a18a5a91536d))
  (fp_line (start -12.189 0.561425) (end -3.559 0.561425) (layer "F.SilkS") (width 0.12) (tstamp 499ae03d-4b3f-4b14-b22f-f7aee8f854aa))
  (fp_line (start -12.189 6.35) (end -3.559 6.35) (layer "F.SilkS") (width 0.12) (tstamp 5be68b80-7d23-4406-bdc3-81cd5dacc82c))
  (fp_line (start -12.189 1.27) (end -3.559 1.27) (layer "F.SilkS") (width 0.12) (tstamp 601be616-6d29-4d0e-a26b-667dcae379ea))
  (fp_line (start -12.189 -0.73762) (end -3.559 -0.73762) (layer "F.SilkS") (width 0.12) (tstamp 65bea1be-2638-4c14-9c75-a1c22b5246da))
  (fp_line (start -12.189 0.797615) (end -3.559 0.797615) (layer "F.SilkS") (width 0.12) (tstamp 660a1901-cdfb-453c-b11f-ba3f5ee833af))
  (fp_line (start -12.189 0.325235) (end -3.559 0.325235) (layer "F.SilkS") (width 0.12) (tstamp 7dff0a7f-556e-41c4-a1f8-c1ec48cc50f5))
  (fp_line (start -12.189 3.81) (end -3.559 3.81) (layer "F.SilkS") (width 0.12) (tstamp 80ea4daf-af9b-47d9-93b4-259d091e97e3))
  (fp_line (start -12.189 11.49) (end -3.559 11.49) (layer "F.SilkS") (width 0.12) (tstamp 811ba28d-a90a-43f4-b24d-7b7ca80fa4dc))
  (fp_line (start -12.189 -0.26524) (end -3.559 -0.26524) (layer "F.SilkS") (width 0.12) (tstamp 9a7ab479-1eb6-46f3-a92d-18bc87220fe8))
  (fp_line (start -12.189 -1.091905) (end -3.559 -1.091905) (layer "F.SilkS") (width 0.12) (tstamp b33df6b3-490f-4619-af8a-fb2fce84e607))
  (fp_line (start -12.189 -0.855715) (end -3.559 -0.855715) (layer "F.SilkS") (width 0.12) (tstamp b5390b70-0b11-46bb-b6ce-f4976d37d835))
  (fp_line (start -12.189 0.91571) (end -3.559 0.91571) (layer "F.SilkS") (width 0.12) (tstamp c4a634f5-827c-4c29-997c-3d2127dffec4))
  (fp_line (start -12.189 1.1519) (end -3.559 1.1519) (layer "F.SilkS") (width 0.12) (tstamp c4ff949f-a319-45c8-bcac-e45040c48df6))
  (fp_line (start -12.189 0.089045) (end -3.559 0.089045) (layer "F.SilkS") (width 0.12) (tstamp c9b6300b-f402-40a1-bfb9-0567c02df992))
  (fp_line (start -12.189 0.67952) (end -3.559 0.67952) (layer "F.SilkS") (width 0.12) (tstamp e89e24c6-dc52-4bdd-ba4b-fab151ae653f))
  (fp_line (start -3.559 -1.33) (end -3.559 11.49) (layer "F.SilkS") (width 0.12) (tstamp e9013e4d-5ebb-4f92-9634-c3fd4d1db1ba))
  (fp_line (start -12.189 -0.02905) (end -3.559 -0.02905) (layer "F.SilkS") (width 0.12) (tstamp f849d8ec-c5f6-40f7-9e4a-2268a0876451))
  (fp_rect (start -12.7 -1.778) (end 2.032 11.938) (layer "F.CrtYd") (width 0.05) (fill none) (tstamp 7ae086e9-d26f-4a4f-aff8-4d22fef6cfe1))
  (fp_line (start -3.619 11.43) (end -12.129 11.43) (layer "F.Fab") (width 0.1) (tstamp 0d850052-7a63-47f0-bf7a-2b6979dc029e))
  (fp_line (start -12.129 11.43) (end -12.129 -1.27) (layer "F.Fab") (width 0.1) (tstamp 33101c37-0607-4c87-99ae-9459deeb71c6))
  (fp_line (start -12.129 -1.27) (end -4.589 -1.27) (layer "F.Fab") (width 0.1) (tstamp 6c25b9a3-14ff-46c2-b6a1-0bd79085e5c2))
  (fp_line (start -3.619 -0.3) (end -3.619 11.43) (layer "F.Fab") (width 0.1) (tstamp cc841064-25c4-4a83-b3cc-4e49fb6e5f52))
  (fp_line (start -4.589 -1.27) (end -3.619 -0.3) (layer "F.Fab") (width 0.1) (tstamp f3900393-0786-43e4-a0d6-0304d28e5962))
  (pad "1" smd rect (at 0 0 270) (size 1.2 3.17) (layers "F.Cu" "F.Paste" "F.Mask") (tstamp c740f7ab-35a3-4b16-86d8-d2842630b92c))
  (pad "2" smd roundrect (at 0 2.54 270) (size 1.2 3.17) (layers "F.Cu" "F.Paste" "F.Mask") (roundrect_rratio 0.25) (tstamp d761472e-be71-4145-b14a-27d26cad2728))
  (pad "3" smd roundrect (at 0 5.08 270) (size 1.2 3.17) (layers "F.Cu" "F.Paste" "F.Mask") (roundrect_rratio 0.25) (tstamp dc3691a4-bb4e-4227-97fa-be835481dc90))
  (pad "4" smd roundrect (at 0 7.62 270) (size 1.2 3.17) (layers "F.Cu" "F.Paste" "F.Mask") (roundrect_rratio 0.25) (tstamp 6748adfc-bd28-4dfb-b4d7-e7c664a60123))
  (pad "5" smd roundrect (at 0 10.16 270) (size 1.2 3.17) (layers "F.Cu" "F.Paste" "F.Mask") (roundrect_rratio 0.25) (tstamp 09276095-0227-41d3-9de5-b1fb3dcfc365))
)
